Chapter 17 Change Default Colors | ArabBarometR Graphing Guide
…
data_frame_2_plot <- survey1 |>
  calculate_demographic_smry_comp("Q1COVID19",
                                  .dem = "Q101") 

data_frame_2_plot

## # A tibble: 35 × 3
## # Groups:   Country [6]
##    Country Q101              Q1COVID19
##    <chr>   <fct>                 <dbl>
##  1 Algeria Very good                54
##  2 Algeria Good                     73
##  3 Algeria Bad                      72
##  4 Algeria Very bad                 80
##  5 Algeria Don’t know               38
##  6 Algeria Refused to answer         0
##  7 Jordan  Very good                70
##  8 Jordan  Good                     65
##  9 Jordan  Bad                      70
## 10 Jordan  Very bad                 52
## # … with 25 more rows
…
