Chapter 10 Stacked Plots | ArabBarometR Graphing Guide
…
10.1 Create a Single Graph

10.1.1 Create a Summary

As usual, the first step to creating a stacked bar graph is to summarize the data you want to display. To do this you use the calculate_stacked_df() function. This function requires two arguments: (1) an Arab Barometer data frame, and (2) the name of the variable you want to graph.

For this example, we’ll use the first survey of wave six and question Q2061A.

calculate_stacked_df(
  .ab = survey1,   # Data Frame
  .var = "Q2061A"  # Variable Name
  )

## # A tibble: 54 × 3
## # Groups:   Country [6]
##    Q2061A                      Country Percent
##    <dbl+lbl>                   <chr>     <dbl>
##  1   1 [Economic situation]    Algeria      28
##  2   2 [Corruption]            Algeria       7
##  3   6 [Instability]           Algeria       4
##  4   7 [Foreign interference]  Algeria       2
##  5  12 [Public services]       Algeria       1
##  6  15 [COVID-19]              Algeria      52
##  7  16 [Other]                 Algeria       4
##  8  17 [Beirut port explosion] Algeria       0
##  9 666 [Don't know/Refuse]     Algeria       2
## 10   1 [Economic situation]    Jordan       41
## # ℹ 44 more rows
…
summary_list <- map(
  variables_2_plot,     # List of variables
  calculate_stacked_df, # Function to map onto
  .ab = survey1         # Constant parameter
  )

Unlike the list produced produced when we created many summaries for single country overall plots, this list of summaries is not named. The list has three elements (one for each variable) called "1", "2", and "3". While not strictly necessary, it is useful to provide names for referencing later. Luckily, if you saved the names of the variables as a vector, you can set that vector as the names of the elements in the summary list6.

names(summary_list) <- variables_2_plot

Now, you can look at each variable’s summary by referencing the variable name.

summary_list$Q2061A

## # A tibble: 54 × 3
## # Groups:   Country [6]
##    Q2061A                      Country Percent
##    <dbl+lbl>                   <chr>     <dbl>
##  1   1 [Economic situation]    Algeria      28
##  2   2 [Corruption]            Algeria       7
##  3   6 [Instability]           Algeria       4
##  4   7 [Foreign interference]  Algeria       2
##  5  12 [Public services]       Algeria       1
##  6  15 [COVID-19]              Algeria      52
##  7  16 [Other]                 Algeria       4
##  8  17 [Beirut port explosion] Algeria       0
##  9 666 [Don't know/Refuse]     Algeria       2
## 10   1 [Economic situation]    Jordan       41
## # ℹ 44 more rows

summary_list$Q118_1

## # A tibble: 42 × 3
## # Groups:   Country [6]
##    Q118_1                                              Country Percent
##    <dbl+lbl>                                           <chr>     <dbl>
##  1   1 [Create more job opportunities]                 Algeria      40
##  2   2 [Raise wages for existing jobs]                 Algeria      14
##  3   3 [Lower the cost of living (limiting inflation)] Algeria      15
##  4   4 [Reform the education system]                   Algeria      15
##  5   5 [Encouraging foreign investment]                Algeria      10
##  6   6 [Other]                                         Algeria       5
##  7 666 [Don't know/Refuse]                             Algeria       1
##  8   1 [Create more job opportunities]                 Jordan       39
##  9   2 [Raise wages for existing jobs]                 Jordan       18
## 10   3 [Lower the cost of living (limiting inflation)] Jordan       17
## # ℹ 32 more rows

summary_list$Q516A

## # A tibble: 24 × 3
## # Groups:   Country [6]
##    Q516A                                                  Country Percent
##    <dbl+lbl>                                              <chr>     <dbl>
##  1   1 [For people like me, it doesn't matter what kind … Algeria       9
##  2   2 [Under some circumstances, a non-democratic gover… Algeria      18
##  3   3 [Democracy is always preferable to any other kind… Algeria      64
##  4 666 [Don't know/Refuse]                                Algeria       8
##  5   1 [For people like me, it doesn't matter what kind … Jordan       16
##  6   2 [Under some circumstances, a non-democratic gover… Jordan       13
##  7   3 [Democracy is always preferable to any other kind… Jordan       59
##  8 666 [Don't know/Refuse]                                Jordan       13
##  9   1 [For people like me, it doesn't matter what kind … Lebanon      22
## 10   2 [Under some circumstances, a non-democratic gover… Lebanon      28
## # ℹ 14 more rows
…
